Bglandula_FHL_energetics - 2 model setup
…
# plot(PB$datetime, PB$psu, pch = ".")

vars <-"m.d.y.hh.mm"
dat <- PB %>% 
  drop_na(ug.l, any_of(vars))%>%
  dplyr::group_by(time = week(datetime)) %>% 
  dplyr::summarise(value = mean(ug.l, na.rm = TRUE), .groups = 'keep')
dat

# A tibble: 53 × 2
# Groups:   time [53]
    time value
   <dbl> <dbl>
 1     1 0.632
 2     2 0.632
 3     3 0.611
 4     4 0.577
 5     5 0.486
 6     6 0.731
 7     7 0.869
 8     8 0.927
 9     9 1.11 
10    10 1.31 
# … with 43 more rows
…
